<?xml version="1.0" encoding="utf-8"?>
<!-- Generator: Adobe Illustrator 16.0.0, SVG Export Plug-In . SVG Version: 6.00 Build 0)  -->
<!DOCTYPE svg PUBLIC "-//W3C//DTD SVG 1.1//EN" "http://www.w3.org/Graphics/SVG/1.1/DTD/svg11.dtd">
<svg version="1.1" id="Layer_1" xmlns="http://www.w3.org/2000/svg" xmlns:xlink="http://www.w3.org/1999/xlink" x="0px" y="0px"
	 width="444.115px" height="259.736px" viewBox="0 0 444.115 259.736" enable-background="new 0 0 444.115 259.736"
	 xml:space="preserve">
<g>
	<polygon fill="#5C8E88" points="0,0 0,259.736 294.682,259.736 444.115,0 	"/>
</g>
</svg>
