<?xml version="1.0" encoding="utf-8"?>
<!-- Generator: Adobe Illustrator 16.0.0, SVG Export Plug-In . SVG Version: 6.00 Build 0)  -->
<!DOCTYPE svg PUBLIC "-//W3C//DTD SVG 1.1//EN" "http://www.w3.org/Graphics/SVG/1.1/DTD/svg11.dtd">
<svg version="1.1" id="Layer_1" xmlns="http://www.w3.org/2000/svg" xmlns:xlink="http://www.w3.org/1999/xlink" x="0px" y="0px"
	 width="462.999px" height="182.628px" viewBox="0 0 462.999 182.628" enable-background="new 0 0 462.999 182.628"
	 xml:space="preserve">
<polygon fill="#EF7926" points="340.151,0.008 0,0.003 0,182.628 445.592,182.628 462.999,0 "/>
</svg>
