<?xml version="1.0" encoding="utf-8"?>
<!-- Generator: Adobe Illustrator 16.0.0, SVG Export Plug-In . SVG Version: 6.00 Build 0)  -->
<!DOCTYPE svg PUBLIC "-//W3C//DTD SVG 1.1//EN" "http://www.w3.org/Graphics/SVG/1.1/DTD/svg11.dtd">
<svg version="1.1" id="Layer_1" xmlns="http://www.w3.org/2000/svg" xmlns:xlink="http://www.w3.org/1999/xlink" x="0px" y="0px"
	 width="499.629px" height="180.864px" viewBox="0 0 499.629 180.864" enable-background="new 0 0 499.629 180.864"
	 xml:space="preserve">
<polygon fill="#EF7926" points="0,0.227 0,180.864 395.622,180.864 395.625,180.859 395.644,180.859 499.629,0 "/>
</svg>
