<?xml version="1.0" encoding="utf-8"?>
<!-- Generator: Adobe Illustrator 16.0.0, SVG Export Plug-In . SVG Version: 6.00 Build 0)  -->
<!DOCTYPE svg PUBLIC "-//W3C//DTD SVG 1.1//EN" "http://www.w3.org/Graphics/SVG/1.1/DTD/svg11.dtd">
<svg version="1.1" id="Layer_1" xmlns="http://www.w3.org/2000/svg" xmlns:xlink="http://www.w3.org/1999/xlink" x="0px" y="0px"
	 width="485.001px" height="129.252px" viewBox="0 0 485.001 129.252" enable-background="new 0 0 485.001 129.252"
	 xml:space="preserve">
<path fill="#EF7926" d="M452.114,0H0v129.252h443.259l41.742-72.295L452.114,0z"/>
</svg>
