<?xml version="1.0" encoding="utf-8"?>
<!-- Generator: Adobe Illustrator 16.0.0, SVG Export Plug-In . SVG Version: 6.00 Build 0)  -->
<!DOCTYPE svg PUBLIC "-//W3C//DTD SVG 1.1//EN" "http://www.w3.org/Graphics/SVG/1.1/DTD/svg11.dtd">
<svg version="1.1" id="Layer_1" xmlns="http://www.w3.org/2000/svg" xmlns:xlink="http://www.w3.org/1999/xlink" x="0px" y="0px"
	 width="441.526px" height="130.207px" viewBox="0 0 441.526 130.207" enable-background="new 0 0 441.526 130.207"
	 xml:space="preserve">
<path fill="#EF7926" d="M441.526,0H0v130.207h366.346L441.526,0z"/>
</svg>
