<?xml version="1.0" encoding="utf-8"?>
<!-- Generator: Adobe Illustrator 16.0.0, SVG Export Plug-In . SVG Version: 6.00 Build 0)  -->
<!DOCTYPE svg PUBLIC "-//W3C//DTD SVG 1.1//EN" "http://www.w3.org/Graphics/SVG/1.1/DTD/svg11.dtd">
<svg version="1.1" id="Layer_1" xmlns="http://www.w3.org/2000/svg" xmlns:xlink="http://www.w3.org/1999/xlink" x="0px" y="0px"
	 width="211px" height="211px" viewBox="0 0 211 211" enable-background="new 0 0 211 211" xml:space="preserve">
<circle fill="#FFFFFF" stroke="#F17828" stroke-miterlimit="10" cx="105.704" cy="105.952" r="105"/>
<path fill="#F37826" d="M154.97,47.548h-30.041v17.724h12.01l-30.436,36.102L76.071,65.271h10.998V47.548H57.498
	c-5.337,0-9.901,4.047-9.901,9.382v97.475c0,5.34,4.564,9.952,9.901,9.952h29.571v-18.527H76.071l30.433-36.102l30.436,36.102
	h-12.01v18.527h30.041c5.34,0,9.432-4.612,9.432-9.952V56.93C164.402,51.595,160.31,47.548,154.97,47.548"/>
</svg>
