<?xml version="1.0" encoding="utf-8"?>
<!-- Generator: Adobe Illustrator 16.0.0, SVG Export Plug-In . SVG Version: 6.00 Build 0)  -->
<!DOCTYPE svg PUBLIC "-//W3C//DTD SVG 1.1//EN" "http://www.w3.org/Graphics/SVG/1.1/DTD/svg11.dtd">
<svg version="1.1" id="Layer_1" xmlns="http://www.w3.org/2000/svg" xmlns:xlink="http://www.w3.org/1999/xlink" x="0px" y="0px"
	 width="27px" height="27px" viewBox="0 0 27 27" enable-background="new 0 0 27 27" xml:space="preserve">
<g>
	<g>
		<g>
			<rect x="7.425" y="11.436" fill="#444444" width="2.674" height="7.99"/>
		</g>
		<g>
			<path fill="#444444" d="M8.757,10.346H8.739C7.841,10.347,7.261,9.728,7.26,8.964C7.259,8.179,7.856,7.583,8.771,7.582
				s1.478,0.595,1.496,1.38C10.269,9.726,9.688,10.345,8.757,10.346L8.757,10.346z"/>
		</g>
		<g>
			<path fill="#444444" d="M19.741,19.416l-2.668,0.003l-0.003-4.273c-0.001-1.074-0.395-1.813-1.362-1.812
				c-0.743,0.001-1.177,0.499-1.367,0.981c-0.07,0.162-0.088,0.402-0.088,0.643l0.004,4.463l-2.676,0.002
				c0,0,0.028-7.242-0.007-7.99l2.676-0.002l0.001,1.133c0.351-0.543,0.985-1.323,2.405-1.324c1.762-0.002,3.079,1.14,3.081,3.595
				L19.741,19.416z"/>
		</g>
	</g>
	<g>
		<path fill="#444444" d="M13.512,27H13.5C6.063,27,0.006,20.949,0,13.512C-0.006,6.067,6.044,0.006,13.488,0
			C20.938,0,26.994,6.051,27,13.488C27.006,20.932,20.955,26.992,13.512,27z M13.501,2C7.149,2.005,1.995,7.169,2,13.51
			C2.005,19.846,7.164,25,13.5,25v1l0.01-1c6.341-0.006,11.496-5.17,11.49-11.51C24.994,7.154,19.836,2,13.501,2z"/>
	</g>
</g>
<circle fill="none" stroke="#444444" stroke-width="2" stroke-miterlimit="10" cx="221.777" cy="-24.906" r="12.5"/>
<path fill="#444444" d="M224.832-23.905l-1.997,0.001l0.006,7.123l-2.962,0.003l-0.006-7.123l-1.407,0.001l-0.002-2.516l1.407-0.001
	l-0.002-1.629c-0.001-1.164,0.552-2.989,2.985-2.991l2.193,0.008l0.003,2.443l-1.592,0.001c-0.261,0-0.628,0.129-0.628,0.686
	l0.002,1.48l2.256-0.002L224.832-23.905z"/>
<circle fill="none" stroke="#444444" stroke-width="2" stroke-miterlimit="10" cx="270.196" cy="-24.948" r="12.5"/>
<path fill="#444444" d="M276.115-27.013c0.005,0.125,0.008,0.254,0.008,0.383c0.004,3.887-2.952,8.374-8.366,8.379
	c-1.662,0.001-3.209-0.482-4.513-1.318c0.23,0.027,0.465,0.042,0.701,0.042c1.381-0.001,2.647-0.473,3.655-1.265
	c-1.287-0.022-2.374-0.873-2.75-2.041c0.178,0.035,0.361,0.052,0.553,0.052c0.267,0,0.528-0.036,0.775-0.104
	c-1.346-0.268-2.363-1.457-2.365-2.882c0-0.014,0-0.025,0.003-0.037c0.395,0.22,0.851,0.351,1.334,0.364
	c-0.791-0.522-1.313-1.426-1.313-2.446c0-0.539,0.145-1.045,0.396-1.481c1.453,1.78,3.624,2.95,6.069,3.071
	c-0.051-0.217-0.077-0.439-0.077-0.672c-0.001-1.623,1.315-2.942,2.94-2.944c0.848-0.001,1.611,0.356,2.147,0.926
	c0.672-0.131,1.304-0.376,1.872-0.716c-0.222,0.689-0.686,1.266-1.295,1.632c0.597-0.071,1.165-0.229,1.69-0.464
	C277.189-27.947,276.688-27.429,276.115-27.013L276.115-27.013z"/>
</svg>
