<?xml version="1.0" encoding="utf-8"?>
<!-- Generator: Adobe Illustrator 16.0.0, SVG Export Plug-In . SVG Version: 6.00 Build 0)  -->
<!DOCTYPE svg PUBLIC "-//W3C//DTD SVG 1.1//EN" "http://www.w3.org/Graphics/SVG/1.1/DTD/svg11.dtd">
<svg version="1.1" id="Layer_1" xmlns="http://www.w3.org/2000/svg" xmlns:xlink="http://www.w3.org/1999/xlink" x="0px" y="0px"
	 width="113.648px" height="82.654px" viewBox="0 0 113.648 82.654" enable-background="new 0 0 113.648 82.654"
	 xml:space="preserve">
<path fill="#414042" d="M98.047,33.105c0.045-0.697,0.105-1.395,0.105-2.109C98.152,13.879,84.273,0,67.156,0
	C55.24,0,44.912,6.732,39.723,16.592c-1.92-0.695-3.982-1.094-6.145-1.094c-9.986,0-18.08,8.094-18.08,18.08
	c0,1.299,0.143,2.563,0.404,3.787C6.668,40.441,0,49.141,0,59.408c0,12.84,10.408,23.246,23.246,23.246H87.82
	c14.264,0,25.828-11.563,25.828-25.828C113.648,46.193,107.223,37.068,98.047,33.105 M87.82,77.488H23.246
	c-9.969,0-18.08-8.111-18.08-18.08c0-7.789,4.969-14.674,12.369-17.143l4.381-1.457l-0.961-4.518
	c-0.193-0.906-0.291-1.818-0.291-2.713c0-7.121,5.795-12.914,12.914-12.914c1.475,0,2.947,0.264,4.385,0.785l4.232,1.535L44.293,19
	c4.49-8.535,13.252-13.834,22.863-13.834c14.242,0,25.83,11.586,25.83,25.83c0,0.451-0.037,0.893-0.066,1.338l-0.029,0.439
	l-0.234,3.637l3.342,1.441c7.586,3.273,12.486,10.719,12.486,18.975C108.484,68.219,99.213,77.488,87.82,77.488"/>
</svg>
